<?xml version="1.0"?>
<!DOCTYPE svg PUBLIC '-//W3C//DTD SVG 1.0//EN'
          'http://www.w3.org/TR/2001/REC-SVG-20010904/DTD/svg10.dtd'>
<svg xmlns:xlink="http://www.w3.org/1999/xlink" style="fill-opacity:1; color-rendering:auto; color-interpolation:auto; stroke:black; text-rendering:auto; stroke-linecap:square; stroke-miterlimit:10; stroke-opacity:1; shape-rendering:auto; fill:black; stroke-dasharray:none; font-weight:normal; stroke-width:1; font-family:'Dialog'; font-style:normal; stroke-linejoin:miter; font-size:12px; stroke-dashoffset:0; image-rendering:auto;" width="1920" height="964" xmlns="http://www.w3.org/2000/svg"
><!--Generated by the Batik Graphics2D SVG Generator--><defs id="genericDefs"
  /><g
  ><defs id="defs1"
    ><clipPath clipPathUnits="userSpaceOnUse" id="clipPath1"
      ><path d="M0 0 L1920 0 L1920 964 L0 964 L0 0 Z"
      /></clipPath
      ><font horiz-adv-x="75.0" id="font1"
      ><font-face ascent="100.53711" descent="21.972656" units-per-em="100" style="font-style:normal; font-family:Dialog; font-weight:normal;"
        /><missing-glyph horiz-adv-x="75.0" d="M12.5 0 L12.5 62.5 L62.5 62.5 L62.5 0 L12.5 0 ZM14.0625 1.5625 L60.9375 1.5625 L60.9375 60.9375 L14.0625 60.9375 L14.0625 1.5625 Z"
        /><glyph unicode="1" horiz-adv-x="55.615234" d="M37.25 0 L28.4688 0 L28.4688 56 Q25.2969 52.9844 20.1406 49.9531 Q14.9844 46.9219 10.8906 45.4062 L10.8906 53.9062 Q18.2656 57.375 23.7812 62.3047 Q29.2969 67.2344 31.5938 71.875 L37.25 71.875 L37.25 0 Z"
        /><glyph unicode="2" horiz-adv-x="55.615234" d="M50.3438 8.4531 L50.3438 0 L3.0312 0 Q2.9375 3.1719 4.0469 6.1094 Q5.8594 10.9375 9.8359 15.625 Q13.8125 20.3125 21.3438 26.4688 Q33.0156 36.0312 37.1172 41.625 Q41.2188 47.2188 41.2188 52.2031 Q41.2188 57.4219 37.4766 61.0078 Q33.7344 64.5938 27.7344 64.5938 Q21.3906 64.5938 17.5781 60.7891 Q13.7656 56.9844 13.7188 50.25 L4.6875 51.1719 Q5.6094 61.2812 11.6641 66.5781 Q17.7188 71.875 27.9375 71.875 Q38.2344 71.875 44.2422 66.1641 Q50.25 60.4531 50.25 52 Q50.25 47.7031 48.4922 43.5547 Q46.7344 39.4062 42.6562 34.8125 Q38.5781 30.2188 29.1094 22.2188 Q21.1875 15.5781 18.9453 13.2109 Q16.7031 10.8438 15.2344 8.4531 L50.3438 8.4531 Z"
        /><glyph unicode="3" horiz-adv-x="55.615234" d="M4.2031 18.8906 L12.9844 20.0625 Q14.5 12.5938 18.1406 9.2969 Q21.7812 6 27 6 Q33.2031 6 37.4766 10.2969 Q41.75 14.5938 41.75 20.9531 Q41.75 27 37.7969 30.9297 Q33.8438 34.8594 27.7344 34.8594 Q25.25 34.8594 21.5312 33.8906 L22.5156 41.6094 Q23.3906 41.5 23.9219 41.5 Q29.5469 41.5 34.0391 44.4297 Q38.5312 47.3594 38.5312 53.4688 Q38.5312 58.2969 35.2578 61.4766 Q31.9844 64.6562 26.8125 64.6562 Q21.6875 64.6562 18.2656 61.4297 Q14.8438 58.2031 13.875 51.7656 L5.0781 53.3281 Q6.6875 62.1562 12.3984 67.0156 Q18.1094 71.875 26.6094 71.875 Q32.4688 71.875 37.3984 69.3594 Q42.3281 66.8438 44.9453 62.5 Q47.5625 58.1562 47.5625 53.2656 Q47.5625 48.6406 45.0703 44.8281 Q42.5781 41.0156 37.7031 38.7656 Q44.0469 37.3125 47.5625 32.6953 Q51.0781 28.0781 51.0781 21.1406 Q51.0781 11.7656 44.2422 5.25 Q37.4062 -1.2656 26.9531 -1.2656 Q17.5312 -1.2656 11.3047 4.3516 Q5.0781 9.9688 4.2031 18.8906 Z"
        /><glyph unicode="4" horiz-adv-x="55.615234" d="M32.3281 0 L32.3281 17.1406 L1.2656 17.1406 L1.2656 25.2031 L33.9375 71.5781 L41.1094 71.5781 L41.1094 25.2031 L50.7812 25.2031 L50.7812 17.1406 L41.1094 17.1406 L41.1094 0 L32.3281 0 ZM32.3281 25.2031 L32.3281 57.4688 L9.9062 25.2031 L32.3281 25.2031 Z"
        /><glyph unicode="5" horiz-adv-x="55.615234" d="M4.1562 18.75 L13.375 19.5312 Q14.4062 12.7969 18.1406 9.3984 Q21.875 6 27.1562 6 Q33.5 6 37.8906 10.7891 Q42.2812 15.5781 42.2812 23.4844 Q42.2812 31 38.0625 35.3516 Q33.8438 39.7031 27 39.7031 Q22.75 39.7031 19.3359 37.7734 Q15.9219 35.8438 13.9688 32.7656 L5.7188 33.8438 L12.6406 70.6094 L48.25 70.6094 L48.25 62.2031 L19.6719 62.2031 L15.8281 42.9688 Q22.2656 47.4688 29.3438 47.4688 Q38.7188 47.4688 45.1641 40.9688 Q51.6094 34.4688 51.6094 24.2656 Q51.6094 14.5469 45.9531 7.4688 Q39.0625 -1.2188 27.1562 -1.2188 Q17.3906 -1.2188 11.2109 4.25 Q5.0312 9.7188 4.1562 18.75 Z"
        /><glyph unicode="6" horiz-adv-x="55.615234" d="M49.75 54.0469 L41.0156 53.375 Q39.8438 58.5469 37.7031 60.8906 Q34.125 64.6562 28.9062 64.6562 Q24.7031 64.6562 21.5312 62.3125 Q17.3906 59.2812 14.9922 53.4688 Q12.5938 47.6562 12.5 36.9219 Q15.6719 41.75 20.2656 44.0938 Q24.8594 46.4375 29.8906 46.4375 Q38.6719 46.4375 44.8516 39.9688 Q51.0312 33.5 51.0312 23.25 Q51.0312 16.5 48.125 10.7188 Q45.2188 4.9375 40.1406 1.8594 Q35.0625 -1.2188 28.6094 -1.2188 Q17.625 -1.2188 10.6953 6.8594 Q3.7656 14.9375 3.7656 33.5 Q3.7656 54.25 11.4219 63.6719 Q18.1094 71.875 29.4375 71.875 Q37.8906 71.875 43.2891 67.1406 Q48.6875 62.4062 49.75 54.0469 ZM13.875 23.1875 Q13.875 18.6562 15.7969 14.5078 Q17.7188 10.3594 21.1875 8.1797 Q24.6562 6 28.4688 6 Q34.0312 6 38.0391 10.4922 Q42.0469 14.9844 42.0469 22.7031 Q42.0469 30.125 38.0859 34.3984 Q34.125 38.6719 28.125 38.6719 Q22.1719 38.6719 18.0234 34.3984 Q13.875 30.125 13.875 23.1875 Z"
        /><glyph unicode="7" horiz-adv-x="55.615234" d="M4.7344 62.2031 L4.7344 70.6562 L51.0781 70.6562 L51.0781 63.8125 Q44.2344 56.5469 37.5234 44.4844 Q30.8125 32.4219 27.1562 19.6719 Q24.5156 10.6875 23.7812 0 L14.75 0 Q14.8906 8.4531 18.0625 20.4141 Q21.2344 32.375 27.1719 43.4844 Q33.1094 54.5938 39.7969 62.2031 L4.7344 62.2031 Z"
        /><glyph unicode=")" horiz-adv-x="33.30078" d="M12.3594 -21.0469 L6.0625 -21.0469 Q20.6562 2.3906 20.6562 25.875 Q20.6562 35.0625 18.5625 44.0938 Q16.8906 51.4219 13.9219 58.1562 Q12.0156 62.5469 6.0625 72.7969 L12.3594 72.7969 Q21.5312 60.5469 25.9219 48.1875 Q29.6875 37.5469 29.6875 25.9219 Q29.6875 12.75 24.6328 0.4453 Q19.5781 -11.8594 12.3594 -21.0469 Z"
        /><glyph unicode="k" horiz-adv-x="50.0" d="M6.6406 0 L6.6406 71.5781 L15.4375 71.5781 L15.4375 30.7656 L36.2344 51.8594 L47.6094 51.8594 L27.7812 32.625 L49.6094 0 L38.7656 0 L21.625 26.5156 L15.4375 20.5625 L15.4375 0 L6.6406 0 Z"
        /><glyph unicode="(" horiz-adv-x="33.30078" d="M23.3906 -21.0469 Q16.1094 -11.8594 11.0859 0.4453 Q6.0625 12.75 6.0625 25.9219 Q6.0625 37.5469 9.8125 48.1875 Q14.2031 60.5469 23.3906 72.7969 L29.6875 72.7969 Q23.7812 62.6406 21.875 58.2969 Q18.8906 51.5625 17.1875 44.2344 Q15.0938 35.1094 15.0938 25.875 Q15.0938 2.3906 29.6875 -21.0469 L23.3906 -21.0469 Z"
        /><glyph unicode="t" horiz-adv-x="27.783203" d="M25.7812 7.8594 L27.0469 0.0938 Q23.3438 -0.6875 20.4062 -0.6875 Q15.625 -0.6875 12.9922 0.8281 Q10.3594 2.3438 9.2812 4.8125 Q8.2031 7.2812 8.2031 15.1875 L8.2031 45.0156 L1.7656 45.0156 L1.7656 51.8594 L8.2031 51.8594 L8.2031 64.7031 L16.9375 69.9688 L16.9375 51.8594 L25.7812 51.8594 L25.7812 45.0156 L16.9375 45.0156 L16.9375 14.7031 Q16.9375 10.9375 17.4062 9.8672 Q17.875 8.7969 18.9219 8.1562 Q19.9688 7.5156 21.9219 7.5156 Q23.3906 7.5156 25.7812 7.8594 Z"
        /><glyph unicode="c" horiz-adv-x="50.0" d="M40.4375 19 L49.0781 17.875 Q47.6562 8.9375 41.8203 3.8828 Q35.9844 -1.1719 27.4844 -1.1719 Q16.8438 -1.1719 10.375 5.7891 Q3.9062 12.75 3.9062 25.7344 Q3.9062 34.125 6.6875 40.4297 Q9.4688 46.7344 15.1562 49.8828 Q20.8438 53.0312 27.5469 53.0312 Q35.9844 53.0312 41.3594 48.7578 Q46.7344 44.4844 48.25 36.625 L39.7031 35.2969 Q38.4844 40.5312 35.3828 43.1641 Q32.2812 45.7969 27.875 45.7969 Q21.2344 45.7969 17.0859 41.0391 Q12.9375 36.2812 12.9375 25.9844 Q12.9375 15.5312 16.9453 10.7969 Q20.9531 6.0625 27.3906 6.0625 Q32.5625 6.0625 36.0312 9.2344 Q39.5 12.4062 40.4375 19 Z"
        /><glyph unicode="a" horiz-adv-x="55.615234" d="M40.4375 6.3906 Q35.5469 2.25 31.0312 0.5391 Q26.5156 -1.1719 21.3438 -1.1719 Q12.7969 -1.1719 8.2031 3 Q3.6094 7.1719 3.6094 13.6719 Q3.6094 17.4844 5.3438 20.6328 Q7.0781 23.7812 9.8906 25.6875 Q12.7031 27.5938 16.2188 28.5625 Q18.7969 29.25 24.0312 29.8906 Q34.6719 31.1562 39.7031 32.9062 Q39.75 34.7188 39.75 35.2031 Q39.75 40.5781 37.25 42.7812 Q33.8906 45.75 27.25 45.75 Q21.0469 45.75 18.0938 43.5781 Q15.1406 41.4062 13.7188 35.8906 L5.125 37.0625 Q6.2969 42.5781 8.9844 45.9688 Q11.6719 49.3594 16.75 51.1953 Q21.8281 53.0312 28.5156 53.0312 Q35.1562 53.0312 39.3047 51.4688 Q43.4531 49.9062 45.4062 47.5391 Q47.3594 45.1719 48.1406 41.5469 Q48.5781 39.3125 48.5781 33.4531 L48.5781 21.7344 Q48.5781 9.4688 49.1406 6.2266 Q49.7031 2.9844 51.375 0 L42.1875 0 Q40.8281 2.7344 40.4375 6.3906 ZM39.7031 26.0312 Q34.9062 24.0781 25.3438 22.7031 Q19.9219 21.9219 17.6797 20.9453 Q15.4375 19.9688 14.2109 18.0938 Q12.9844 16.2188 12.9844 13.9219 Q12.9844 10.4062 15.6484 8.0625 Q18.3125 5.7188 23.4375 5.7188 Q28.5156 5.7188 32.4688 7.9375 Q36.4219 10.1562 38.2812 14.0156 Q39.7031 17 39.7031 22.7969 L39.7031 26.0312 Z"
        /><glyph unicode="f" horiz-adv-x="27.783203" d="M8.6875 0 L8.6875 45.0156 L0.9219 45.0156 L0.9219 51.8594 L8.6875 51.8594 L8.6875 57.375 Q8.6875 62.5938 9.625 65.1406 Q10.8906 68.5625 14.0859 70.6797 Q17.2812 72.7969 23.0469 72.7969 Q26.7656 72.7969 31.25 71.9219 L29.9375 64.2656 Q27.2031 64.75 24.75 64.75 Q20.75 64.75 19.0938 63.0391 Q17.4375 61.3281 17.4375 56.6406 L17.4375 51.8594 L27.5469 51.8594 L27.5469 45.0156 L17.4375 45.0156 L17.4375 0 L8.6875 0 Z"
        /><glyph unicode=" " horiz-adv-x="27.783203" d=""
        /><glyph unicode="d" horiz-adv-x="55.615234" d="M40.2344 0 L40.2344 6.5469 Q35.2969 -1.1719 25.7344 -1.1719 Q19.5312 -1.1719 14.3281 2.25 Q9.125 5.6719 6.2734 11.7969 Q3.4219 17.9219 3.4219 25.875 Q3.4219 33.6406 6.0078 39.9688 Q8.5938 46.2969 13.7734 49.6641 Q18.9531 53.0312 25.3438 53.0312 Q30.0312 53.0312 33.6953 51.0547 Q37.3594 49.0781 39.6562 45.9062 L39.6562 71.5781 L48.3906 71.5781 L48.3906 0 L40.2344 0 ZM12.4531 25.875 Q12.4531 15.9219 16.6484 10.9922 Q20.8438 6.0625 26.5625 6.0625 Q32.3281 6.0625 36.3516 10.7734 Q40.375 15.4844 40.375 25.1406 Q40.375 35.7969 36.2734 40.7734 Q32.1719 45.75 26.1719 45.75 Q20.3125 45.75 16.3828 40.9688 Q12.4531 36.1875 12.4531 25.875 Z"
        /><glyph unicode="l" horiz-adv-x="22.216797" d="M6.3906 0 L6.3906 71.5781 L15.1875 71.5781 L15.1875 0 L6.3906 0 Z"
        /><glyph unicode="o" horiz-adv-x="55.615234" d="M3.3281 25.9219 Q3.3281 40.3281 11.3281 47.2656 Q18.0156 53.0312 27.6406 53.0312 Q38.3281 53.0312 45.1172 46.0234 Q51.9062 39.0156 51.9062 26.6562 Q51.9062 16.6562 48.9062 10.9141 Q45.9062 5.1719 40.1641 2 Q34.4219 -1.1719 27.6406 -1.1719 Q16.75 -1.1719 10.0391 5.8125 Q3.3281 12.7969 3.3281 25.9219 ZM12.3594 25.9219 Q12.3594 15.9688 16.7031 11.0156 Q21.0469 6.0625 27.6406 6.0625 Q34.1875 6.0625 38.5312 11.0391 Q42.875 16.0156 42.875 26.2188 Q42.875 35.8438 38.5 40.7969 Q34.125 45.75 27.6406 45.75 Q21.0469 45.75 16.7031 40.8203 Q12.3594 35.8906 12.3594 25.9219 Z"
        /><glyph unicode="s" horiz-adv-x="50.0" d="M3.0781 15.4844 L11.7656 16.8438 Q12.5 11.625 15.8438 8.8438 Q19.1875 6.0625 25.2031 6.0625 Q31.25 6.0625 34.1797 8.5234 Q37.1094 10.9844 37.1094 14.3125 Q37.1094 17.2812 34.5156 19 Q32.7188 20.1719 25.5312 21.9688 Q15.875 24.4219 12.1406 26.2031 Q8.4062 27.9844 6.4766 31.1328 Q4.5469 34.2812 4.5469 38.0938 Q4.5469 41.5469 6.1328 44.5078 Q7.7188 47.4688 10.4531 49.4219 Q12.5 50.9219 16.0391 51.9766 Q19.5781 53.0312 23.6406 53.0312 Q29.7344 53.0312 34.3516 51.2734 Q38.9688 49.5156 41.1641 46.5078 Q43.3594 43.5 44.1875 38.4844 L35.5938 37.3125 Q35.0156 41.3125 32.2031 43.5547 Q29.3906 45.7969 24.2656 45.7969 Q18.2188 45.7969 15.625 43.7969 Q13.0312 41.7969 13.0312 39.1094 Q13.0312 37.4062 14.1094 36.0312 Q15.1875 34.625 17.4844 33.6875 Q18.7969 33.2031 25.25 31.4531 Q34.5781 28.9531 38.2578 27.3672 Q41.9375 25.7812 44.0391 22.7578 Q46.1406 19.7344 46.1406 15.2344 Q46.1406 10.8438 43.5781 6.9609 Q41.0156 3.0781 36.1797 0.9531 Q31.3438 -1.1719 25.25 -1.1719 Q15.1406 -1.1719 9.8438 3.0312 Q4.5469 7.2344 3.0781 15.4844 Z"
        /><glyph unicode="e" horiz-adv-x="55.615234" d="M42.0938 16.7031 L51.1719 15.5781 Q49.0312 7.625 43.2188 3.2266 Q37.4062 -1.1719 28.375 -1.1719 Q17 -1.1719 10.3281 5.8359 Q3.6562 12.8438 3.6562 25.4844 Q3.6562 38.5781 10.3984 45.8047 Q17.1406 53.0312 27.875 53.0312 Q38.2812 53.0312 44.875 45.9531 Q51.4688 38.875 51.4688 26.0312 Q51.4688 25.25 51.4219 23.6875 L12.75 23.6875 Q13.2344 15.1406 17.5781 10.6016 Q21.9219 6.0625 28.4219 6.0625 Q33.25 6.0625 36.6719 8.6016 Q40.0938 11.1406 42.0938 16.7031 ZM13.2344 30.9062 L42.1875 30.9062 Q41.6094 37.4531 38.875 40.7188 Q34.6719 45.7969 27.9844 45.7969 Q21.9219 45.7969 17.7969 41.75 Q13.6719 37.7031 13.2344 30.9062 Z"
        /><glyph unicode="r" horiz-adv-x="33.30078" d="M6.5 0 L6.5 51.8594 L14.4062 51.8594 L14.4062 44 Q17.4375 49.5156 20 51.2734 Q22.5625 53.0312 25.6406 53.0312 Q30.0781 53.0312 34.6719 50.2031 L31.6406 42.0469 Q28.4219 43.9531 25.2031 43.9531 Q22.3125 43.9531 20.0156 42.2188 Q17.7188 40.4844 16.75 37.4062 Q15.2812 32.7188 15.2812 27.1562 L15.2812 0 L6.5 0 Z"
        /><glyph unicode="h" horiz-adv-x="55.615234" d="M6.5938 0 L6.5938 71.5781 L15.375 71.5781 L15.375 45.9062 Q21.5312 53.0312 30.9062 53.0312 Q36.6719 53.0312 40.9219 50.7578 Q45.1719 48.4844 47 44.4844 Q48.8281 40.4844 48.8281 32.8594 L48.8281 0 L40.0469 0 L40.0469 32.8594 Q40.0469 39.4531 37.1875 42.4531 Q34.3281 45.4531 29.1094 45.4531 Q25.2031 45.4531 21.7578 43.4297 Q18.3125 41.4062 16.8438 37.9375 Q15.375 34.4688 15.375 28.375 L15.375 0 L6.5938 0 Z"
        /><glyph unicode="T" horiz-adv-x="61.083984" d="M25.9219 0 L25.9219 63.1406 L2.3438 63.1406 L2.3438 71.5781 L59.0781 71.5781 L59.0781 63.1406 L35.4062 63.1406 L35.4062 0 L25.9219 0 Z"
        /><glyph unicode="0" horiz-adv-x="55.615234" d="M4.1562 35.2969 Q4.1562 48 6.7656 55.7422 Q9.375 63.4844 14.5234 67.6797 Q19.6719 71.875 27.4844 71.875 Q33.25 71.875 37.5938 69.5547 Q41.9375 67.2344 44.7734 62.8672 Q47.6094 58.5 49.2188 52.2266 Q50.8281 45.9531 50.8281 35.2969 Q50.8281 22.7031 48.2422 14.9688 Q45.6562 7.2344 40.5078 3.0078 Q35.3594 -1.2188 27.4844 -1.2188 Q17.1406 -1.2188 11.2344 6.2031 Q4.1562 15.1406 4.1562 35.2969 ZM13.1875 35.2969 Q13.1875 17.6719 17.3125 11.8359 Q21.4375 6 27.4844 6 Q33.5469 6 37.6719 11.8594 Q41.7969 17.7188 41.7969 35.2969 Q41.7969 52.9844 37.6719 58.7891 Q33.5469 64.5938 27.3906 64.5938 Q21.3438 64.5938 17.7188 59.4688 Q13.1875 52.9375 13.1875 35.2969 Z"
        /><glyph unicode="." horiz-adv-x="27.783203" d="M9.0781 0 L9.0781 10.0156 L19.0938 10.0156 L19.0938 0 L9.0781 0 Z"
        /><glyph unicode="i" horiz-adv-x="22.216797" d="M6.6406 61.4688 L6.6406 71.5781 L15.4375 71.5781 L15.4375 61.4688 L6.6406 61.4688 ZM6.6406 0 L6.6406 51.8594 L15.4375 51.8594 L15.4375 0 L6.6406 0 Z"
        /><glyph unicode="p" horiz-adv-x="55.615234" d="M6.5938 -19.875 L6.5938 51.8594 L14.5938 51.8594 L14.5938 45.125 Q17.4375 49.0781 21 51.0547 Q24.5625 53.0312 29.6406 53.0312 Q36.2812 53.0312 41.3594 49.6094 Q46.4375 46.1875 49.0234 39.9609 Q51.6094 33.7344 51.6094 26.3125 Q51.6094 18.3594 48.7578 11.9844 Q45.9062 5.6094 40.4609 2.2188 Q35.0156 -1.1719 29 -1.1719 Q24.6094 -1.1719 21.1172 0.6875 Q17.625 2.5469 15.375 5.375 L15.375 -19.875 L6.5938 -19.875 ZM14.5469 25.6406 Q14.5469 15.625 18.6016 10.8438 Q22.6562 6.0625 28.4219 6.0625 Q34.2812 6.0625 38.4531 11.0156 Q42.625 15.9688 42.625 26.375 Q42.625 36.2812 38.5469 41.2109 Q34.4688 46.1406 28.8125 46.1406 Q23.1875 46.1406 18.8672 40.8906 Q14.5469 35.6406 14.5469 25.6406 Z"
        /><glyph unicode="b" horiz-adv-x="55.615234" d="M14.7031 0 L6.5469 0 L6.5469 71.5781 L15.3281 71.5781 L15.3281 46.0469 Q20.9062 53.0312 29.5469 53.0312 Q34.3281 53.0312 38.6016 51.1016 Q42.875 49.1719 45.6328 45.6797 Q48.3906 42.1875 49.9531 37.2578 Q51.5156 32.3281 51.5156 26.7031 Q51.5156 13.375 44.9219 6.1016 Q38.3281 -1.1719 29.1094 -1.1719 Q19.9219 -1.1719 14.7031 6.5 L14.7031 0 ZM14.5938 26.3125 Q14.5938 17 17.1406 12.8438 Q21.2969 6.0625 28.375 6.0625 Q34.125 6.0625 38.3281 11.0625 Q42.5312 16.0625 42.5312 25.9844 Q42.5312 36.1406 38.5 40.9688 Q34.4688 45.7969 28.7656 45.7969 Q23 45.7969 18.7969 40.7969 Q14.5938 35.7969 14.5938 26.3125 Z"
        /><glyph unicode="m" horiz-adv-x="83.30078" d="M6.5938 0 L6.5938 51.8594 L14.4531 51.8594 L14.4531 44.5781 Q16.8906 48.3906 20.9453 50.7109 Q25 53.0312 30.1719 53.0312 Q35.9375 53.0312 39.625 50.6406 Q43.3125 48.25 44.8281 43.9531 Q50.9844 53.0312 60.8438 53.0312 Q68.5625 53.0312 72.7109 48.7578 Q76.8594 44.4844 76.8594 35.5938 L76.8594 0 L68.1094 0 L68.1094 32.6719 Q68.1094 37.9375 67.2578 40.2578 Q66.4062 42.5781 64.1641 43.9922 Q61.9219 45.4062 58.8906 45.4062 Q53.4219 45.4062 49.8047 41.7734 Q46.1875 38.1406 46.1875 30.125 L46.1875 0 L37.4062 0 L37.4062 33.6875 Q37.4062 39.5469 35.2578 42.4766 Q33.1094 45.4062 28.2188 45.4062 Q24.5156 45.4062 21.3672 43.4531 Q18.2188 41.5 16.7969 37.7422 Q15.375 33.9844 15.375 26.9062 L15.375 0 L6.5938 0 Z"
        /><glyph unicode="u" horiz-adv-x="55.615234" d="M40.5781 0 L40.5781 7.625 Q34.5156 -1.1719 24.125 -1.1719 Q19.5312 -1.1719 15.5547 0.5859 Q11.5781 2.3438 9.6484 5.0078 Q7.7188 7.6719 6.9375 11.5312 Q6.3906 14.1094 6.3906 19.7344 L6.3906 51.8594 L15.1875 51.8594 L15.1875 23.0938 Q15.1875 16.2188 15.7188 13.8125 Q16.5469 10.3594 19.2344 8.375 Q21.9219 6.3906 25.875 6.3906 Q29.8281 6.3906 33.2969 8.4219 Q36.7656 10.4531 38.2109 13.9453 Q39.6562 17.4375 39.6562 24.0781 L39.6562 51.8594 L48.4375 51.8594 L48.4375 0 L40.5781 0 Z"
        /><glyph unicode="N" horiz-adv-x="72.2168" d="M7.625 0 L7.625 71.5781 L17.3281 71.5781 L54.9375 15.375 L54.9375 71.5781 L64.0156 71.5781 L64.0156 0 L54.2969 0 L16.7031 56.25 L16.7031 0 L7.625 0 Z"
      /></font
      ><font horiz-adv-x="75.0" id="font2"
      ><font-face ascent="65.42969" descent="22.558594" units-per-em="100" style="font-style:normal; font-family:mwb_cmsy10; font-weight:normal;"
        /><missing-glyph horiz-adv-x="75.0" d="M12.5 0 L12.5 62.5 L62.5 62.5 L62.5 0 L12.5 0 ZM60.8906 1.6094 L60.8906 60.8906 L14.1094 60.8906 L14.1094 1.6094 L60.8906 1.6094 Z"
        /><glyph unicode="#" horiz-adv-x="77.68555" d="M14.7031 2.875 Q14.7031 3.6562 15.1875 4.2969 L35.9844 25 L15.1875 45.7969 Q14.7031 46.2969 14.7031 47.125 Q14.7031 47.8594 15.2891 48.4922 Q15.875 49.125 16.7031 49.125 Q17.3906 49.125 18.2188 48.4844 L38.9219 27.7812 L59.5156 48.4844 Q60.3594 49.125 60.9844 49.125 Q61.8125 49.125 62.3984 48.5391 Q62.9844 47.9531 62.9844 47.125 Q62.9844 46.2969 62.5 45.7969 L41.7031 25 L62.5 4.2969 Q62.9844 3.6562 62.9844 2.875 Q62.9844 2.0469 62.3984 1.4609 Q61.8125 0.875 60.9844 0.875 Q60.25 0.875 59.5156 1.6094 L38.9219 22.2188 L18.2188 1.6094 Q17.4844 0.875 16.7031 0.875 Q15.875 0.875 15.2891 1.5156 Q14.7031 2.1562 14.7031 2.875 Z"
      /></font
      ><font horiz-adv-x="75.0" id="font3"
      ><font-face ascent="100.53711" descent="21.972656" units-per-em="100" style="font-style:normal; font-family:Dialog; font-weight:bold;"
        /><missing-glyph horiz-adv-x="75.0" d="M12.5 0 L12.5 62.5 L62.5 62.5 L62.5 0 L12.5 0 ZM14.0625 1.5625 L60.9375 1.5625 L60.9375 60.9375 L14.0625 60.9375 L14.0625 1.5625 Z"
        /><glyph unicode="1" horiz-adv-x="55.615234" d="M39.3594 0 L25.6406 0 L25.6406 51.7031 Q18.1094 44.6719 7.9062 41.3125 L7.9062 53.7656 Q13.2812 55.5156 19.5781 60.4219 Q25.875 65.3281 28.2188 71.875 L39.3594 71.875 L39.3594 0 Z"
        /><glyph unicode="#" horiz-adv-x="55.615234" d="M7.5156 17.8281 L0.875 17.8281 L0.875 28.5625 L9.6719 28.5625 L12.5938 42.9688 L0.875 42.9688 L0.875 53.7656 L14.7969 53.7656 L18.6562 72.7969 L29.5938 72.7969 L25.7344 53.7656 L36.5312 53.7656 L40.2812 72.7969 L51.6094 72.7969 L47.7031 53.7656 L54.4375 53.7656 L54.4375 42.9688 L45.5156 42.9688 L42.5781 28.5625 L54.4375 28.5625 L54.4375 17.8281 L40.375 17.8281 L36.5312 -1.2188 L25.6406 -1.2188 L29.3906 17.8281 L18.5625 17.8281 L14.7031 -1.2188 L3.6562 -1.2188 L7.5156 17.8281 ZM23.5781 42.9688 L20.7031 28.5625 L31.5469 28.5625 L34.375 42.9688 L23.5781 42.9688 Z"
        /><glyph unicode="l" horiz-adv-x="27.783203" d="M7.1719 0 L7.1719 71.5781 L20.9062 71.5781 L20.9062 0 L7.1719 0 Z"
        /><glyph unicode="a" horiz-adv-x="55.615234" d="M17.4375 36.0312 L4.9844 38.2812 Q7.0781 45.7969 12.2031 49.4141 Q17.3281 53.0312 27.4375 53.0312 Q36.625 53.0312 41.1172 50.8594 Q45.6094 48.6875 47.4375 45.3438 Q49.2656 42 49.2656 33.0625 L49.125 17.0469 Q49.125 10.2031 49.7812 6.9609 Q50.4375 3.7188 52.25 0 L38.6719 0 Q38.1406 1.375 37.3594 4.0469 Q37.0156 5.2812 36.8594 5.6719 Q33.3438 2.25 29.3438 0.5391 Q25.3438 -1.1719 20.7969 -1.1719 Q12.7969 -1.1719 8.1797 3.1719 Q3.5625 7.5156 3.5625 14.1562 Q3.5625 18.5625 5.6641 22 Q7.7656 25.4375 11.5469 27.2734 Q15.3281 29.1094 22.4688 30.4688 Q32.0781 32.2812 35.7969 33.8438 L35.7969 35.2031 Q35.7969 39.1562 33.8438 40.8438 Q31.8906 42.5312 26.4688 42.5312 Q22.7969 42.5312 20.75 41.0938 Q18.7031 39.6562 17.4375 36.0312 ZM35.7969 24.9062 Q33.1562 24.0312 27.4453 22.8047 Q21.7344 21.5781 19.9688 20.4062 Q17.2812 18.5 17.2812 15.5781 Q17.2812 12.7031 19.4297 10.6016 Q21.5781 8.5 24.9062 8.5 Q28.6094 8.5 31.9844 10.9375 Q34.4688 12.7969 35.25 15.4844 Q35.7969 17.2344 35.7969 22.1719 L35.7969 24.9062 Z"
        /><glyph unicode="v" horiz-adv-x="55.615234" d="M21.4375 0 L0.5312 51.8594 L14.9375 51.8594 L24.7031 25.3906 L27.5469 16.5469 Q28.6562 19.9219 28.9531 21 Q29.6406 23.1875 30.4219 25.3906 L40.2812 51.8594 L54.3906 51.8594 L33.7969 0 L21.4375 0 Z"
        /><glyph unicode="t" horiz-adv-x="33.30078" d="M30.9531 51.8594 L30.9531 40.9219 L21.5781 40.9219 L21.5781 20.0156 Q21.5781 13.6719 21.8516 12.625 Q22.125 11.5781 23.0781 10.8906 Q24.0312 10.2031 25.3906 10.2031 Q27.2969 10.2031 30.9062 11.5312 L32.0781 0.875 Q27.2969 -1.1719 21.2344 -1.1719 Q17.5312 -1.1719 14.5547 0.0703 Q11.5781 1.3125 10.1875 3.2969 Q8.7969 5.2812 8.25 8.6406 Q7.8125 11.0312 7.8125 18.3125 L7.8125 40.9219 L1.5156 40.9219 L1.5156 51.8594 L7.8125 51.8594 L7.8125 62.1562 L21.5781 70.1719 L21.5781 51.8594 L30.9531 51.8594 Z"
        /><glyph unicode="n" horiz-adv-x="61.083984" d="M54.3438 0 L40.625 0 L40.625 26.4688 Q40.625 34.8594 39.75 37.3281 Q38.875 39.7969 36.8906 41.1641 Q34.9062 42.5312 32.125 42.5312 Q28.5625 42.5312 25.7344 40.5781 Q22.9062 38.625 21.8516 35.3984 Q20.7969 32.1719 20.7969 23.4844 L20.7969 0 L7.0781 0 L7.0781 51.8594 L19.8281 51.8594 L19.8281 44.2344 Q26.6094 53.0312 36.9219 53.0312 Q41.4531 53.0312 45.2109 51.3906 Q48.9688 49.75 50.8984 47.2109 Q52.8281 44.6719 53.5859 41.4531 Q54.3438 38.2344 54.3438 32.2344 L54.3438 0 Z"
        /><glyph unicode="d" horiz-adv-x="61.083984" d="M54.7344 0 L42 0 L42 7.625 Q38.8125 3.1719 34.4922 1 Q30.1719 -1.1719 25.7812 -1.1719 Q16.8438 -1.1719 10.4766 6.0312 Q4.1094 13.2344 4.1094 26.125 Q4.1094 39.3125 10.3047 46.1719 Q16.5 53.0312 25.9844 53.0312 Q34.6719 53.0312 41.0156 45.7969 L41.0156 71.5781 L54.7344 71.5781 L54.7344 0 ZM18.1094 27.0469 Q18.1094 18.75 20.4062 15.0469 Q23.7344 9.6719 29.6875 9.6719 Q34.4219 9.6719 37.7422 13.6953 Q41.0625 17.7188 41.0625 25.7344 Q41.0625 34.6719 37.8438 38.6016 Q34.625 42.5312 29.5938 42.5312 Q24.7031 42.5312 21.4062 38.6484 Q18.1094 34.7656 18.1094 27.0469 Z"
        /><glyph unicode="k" horiz-adv-x="55.615234" d="M6.6875 0 L6.6875 71.5781 L20.4062 71.5781 L20.4062 33.5938 L36.4688 51.8594 L53.375 51.8594 L35.6406 32.9062 L54.6406 0 L39.8438 0 L26.8125 23.2969 L20.4062 16.6094 L20.4062 0 L6.6875 0 Z"
        /><glyph unicode="i" horiz-adv-x="27.783203" d="M7.1719 58.8906 L7.1719 71.5781 L20.9062 71.5781 L20.9062 58.8906 L7.1719 58.8906 ZM7.1719 0 L7.1719 51.8594 L20.9062 51.8594 L20.9062 0 L7.1719 0 Z"
        /><glyph unicode="p" horiz-adv-x="61.083984" d="M6.7812 51.8594 L19.5781 51.8594 L19.5781 44.2344 Q22.0781 48.1406 26.3203 50.5859 Q30.5625 53.0312 35.75 53.0312 Q44.7812 53.0312 51.0781 45.9531 Q57.375 38.875 57.375 26.2188 Q57.375 13.2344 51.0234 6.0312 Q44.6719 -1.1719 35.6406 -1.1719 Q31.3438 -1.1719 27.8516 0.5391 Q24.3594 2.25 20.5156 6.3906 L20.5156 -19.7344 L6.7812 -19.7344 L6.7812 51.8594 ZM20.3594 26.8125 Q20.3594 18.0625 23.8281 13.8906 Q27.2969 9.7188 32.2812 9.7188 Q37.0625 9.7188 40.2344 13.5547 Q43.4062 17.3906 43.4062 26.125 Q43.4062 34.2812 40.1328 38.2344 Q36.8594 42.1875 32.0312 42.1875 Q27 42.1875 23.6797 38.3047 Q20.3594 34.4219 20.3594 26.8125 Z"
        /><glyph unicode="s" horiz-adv-x="55.615234" d="M2.3438 14.7969 L16.1094 16.8906 Q17 12.8906 19.6797 10.8125 Q22.3594 8.7344 27.2031 8.7344 Q32.5156 8.7344 35.2031 10.6875 Q37.0156 12.0625 37.0156 14.3594 Q37.0156 15.9219 36.0312 16.9375 Q35.0156 17.9219 31.4531 18.75 Q14.8438 22.4062 10.4062 25.4375 Q4.25 29.6406 4.25 37.1094 Q4.25 43.8438 9.5703 48.4375 Q14.8906 53.0312 26.0781 53.0312 Q36.7188 53.0312 41.8984 49.5625 Q47.0781 46.0938 49.0312 39.3125 L36.0781 36.9219 Q35.25 39.9375 32.9297 41.5547 Q30.6094 43.1719 26.3125 43.1719 Q20.9062 43.1719 18.5625 41.6562 Q17 40.5781 17 38.875 Q17 37.4062 18.3594 36.375 Q20.2188 35.0156 31.1797 32.5234 Q42.1406 30.0312 46.4844 26.4219 Q50.7812 22.75 50.7812 16.2188 Q50.7812 9.0781 44.8281 3.9531 Q38.875 -1.1719 27.2031 -1.1719 Q16.6094 -1.1719 10.4297 3.125 Q4.25 7.4219 2.3438 14.7969 Z"
        /><glyph unicode="f" horiz-adv-x="33.30078" d="M1.1719 51.8594 L8.7969 51.8594 L8.7969 55.7656 Q8.7969 62.3125 10.1875 65.5312 Q11.5781 68.75 15.3125 70.7734 Q19.0469 72.7969 24.75 72.7969 Q30.6094 72.7969 36.2344 71.0469 L34.375 61.4688 Q31.1094 62.25 28.0781 62.25 Q25.0938 62.25 23.8047 60.8594 Q22.5156 59.4688 22.5156 55.5156 L22.5156 51.8594 L32.7656 51.8594 L32.7656 41.0625 L22.5156 41.0625 L22.5156 0 L8.7969 0 L8.7969 41.0625 L1.1719 41.0625 L1.1719 51.8594 Z"
        /><glyph unicode="o" horiz-adv-x="61.083984" d="M4 26.6562 Q4 33.5 7.375 39.8984 Q10.75 46.2969 16.9219 49.6641 Q23.0938 53.0312 30.7188 53.0312 Q42.4844 53.0312 50 45.3906 Q57.5156 37.75 57.5156 26.0781 Q57.5156 14.3125 49.9219 6.5703 Q42.3281 -1.1719 30.8125 -1.1719 Q23.6875 -1.1719 17.2188 2.0547 Q10.75 5.2812 7.375 11.5 Q4 17.7188 4 26.6562 ZM18.0625 25.9219 Q18.0625 18.2188 21.7266 14.1172 Q25.3906 10.0156 30.7656 10.0156 Q36.1406 10.0156 39.7734 14.1172 Q43.4062 18.2188 43.4062 26.0312 Q43.4062 33.6406 39.7734 37.7422 Q36.1406 41.8438 30.7656 41.8438 Q25.3906 41.8438 21.7266 37.7422 Q18.0625 33.6406 18.0625 25.9219 Z"
        /><glyph unicode=" " horiz-adv-x="27.783203" d=""
        /><glyph unicode="r" horiz-adv-x="38.916016" d="M20.3125 0 L6.5938 0 L6.5938 51.8594 L19.3438 51.8594 L19.3438 44.4844 Q22.6094 49.7031 25.2188 51.3672 Q27.8281 53.0312 31.1562 53.0312 Q35.8438 53.0312 40.1875 50.4375 L35.9375 38.4844 Q32.4688 40.7188 29.5 40.7188 Q26.6094 40.7188 24.6094 39.1328 Q22.6094 37.5469 21.4609 33.3984 Q20.3125 29.25 20.3125 16.0156 L20.3125 0 Z"
        /><glyph unicode="e" horiz-adv-x="55.615234" d="M37.2031 16.5 L50.875 14.2031 Q48.25 6.6875 42.5547 2.7578 Q36.8594 -1.1719 28.3281 -1.1719 Q14.7969 -1.1719 8.2969 7.6719 Q3.1719 14.75 3.1719 25.5312 Q3.1719 38.4219 9.9141 45.7266 Q16.6562 53.0312 26.9531 53.0312 Q38.5312 53.0312 45.2188 45.3906 Q51.9062 37.75 51.6094 21.9688 L17.2344 21.9688 Q17.3906 15.875 20.5625 12.4766 Q23.7344 9.0781 28.4688 9.0781 Q31.6875 9.0781 33.8828 10.8359 Q36.0781 12.5938 37.2031 16.5 ZM37.9844 30.375 Q37.8438 36.3281 34.9141 39.4297 Q31.9844 42.5312 27.7812 42.5312 Q23.2969 42.5312 20.3594 39.2656 Q17.4375 35.9844 17.4844 30.375 L37.9844 30.375 Z"
        /><glyph unicode="b" horiz-adv-x="61.083984" d="M6.5938 0 L6.5938 71.5781 L20.3125 71.5781 L20.3125 45.7969 Q26.6562 53.0312 35.3594 53.0312 Q44.8281 53.0312 51.0312 46.1719 Q57.2344 39.3125 57.2344 26.4688 Q57.2344 13.1875 50.9062 6.0078 Q44.5781 -1.1719 35.5469 -1.1719 Q31.1094 -1.1719 26.7891 1.0469 Q22.4688 3.2656 19.3438 7.625 L19.3438 0 L6.5938 0 ZM20.2188 27.0469 Q20.2188 19 22.75 15.1406 Q26.3125 9.6719 32.2344 9.6719 Q36.7656 9.6719 39.9688 13.5547 Q43.1719 17.4375 43.1719 25.7812 Q43.1719 34.6719 39.9453 38.6016 Q36.7188 42.5312 31.6875 42.5312 Q26.7656 42.5312 23.4922 38.6953 Q20.2188 34.8594 20.2188 27.0469 Z"
        /><glyph unicode="m" horiz-adv-x="88.916016" d="M6.1562 51.8594 L18.7969 51.8594 L18.7969 44.7812 Q25.5938 53.0312 34.9688 53.0312 Q39.9375 53.0312 43.6016 50.9766 Q47.2656 48.9219 49.6094 44.7812 Q53.0312 48.9219 56.9844 50.9766 Q60.9375 53.0312 65.4375 53.0312 Q71.1406 53.0312 75.0938 50.7109 Q79.0469 48.3906 81 43.8906 Q82.4219 40.5781 82.4219 33.1562 L82.4219 0 L68.7031 0 L68.7031 29.6406 Q68.7031 37.3594 67.2812 39.5938 Q65.375 42.5312 61.4219 42.5312 Q58.5469 42.5312 56.0078 40.7734 Q53.4688 39.0156 52.3438 35.625 Q51.2188 32.2344 51.2188 24.9062 L51.2188 0 L37.5 0 L37.5 28.4219 Q37.5 35.9844 36.7656 38.1797 Q36.0312 40.375 34.4922 41.4531 Q32.9531 42.5312 30.3281 42.5312 Q27.1562 42.5312 24.6172 40.8203 Q22.0781 39.1094 20.9766 35.8906 Q19.875 32.6719 19.875 25.2031 L19.875 0 L6.1562 0 L6.1562 51.8594 Z"
        /><glyph unicode="u" horiz-adv-x="61.083984" d="M41.3125 0 L41.3125 7.7656 Q38.4844 3.6094 33.8672 1.2188 Q29.25 -1.1719 24.125 -1.1719 Q18.8906 -1.1719 14.7422 1.125 Q10.5938 3.4219 8.7422 7.5703 Q6.8906 11.7188 6.8906 19.0469 L6.8906 51.8594 L20.6094 51.8594 L20.6094 28.0312 Q20.6094 17.0938 21.3672 14.625 Q22.125 12.1562 24.125 10.7188 Q26.125 9.2812 29.2031 9.2812 Q32.7188 9.2812 35.5 11.2109 Q38.2812 13.1406 39.3047 15.9922 Q40.3281 18.8438 40.3281 29.9844 L40.3281 51.8594 L54.0469 51.8594 L54.0469 0 L41.3125 0 Z"
        /><glyph unicode="N" horiz-adv-x="72.2168" d="M7.4219 0 L7.4219 71.5781 L21.4844 71.5781 L50.7812 23.7812 L50.7812 71.5781 L64.2031 71.5781 L64.2031 0 L49.7031 0 L20.8438 46.6875 L20.8438 0 L7.4219 0 Z"
      /></font
    ></defs
    ><g style="fill:white; stroke:white;"
    ><rect x="0" y="0" width="1920" style="clip-path:url(#clipPath1); stroke:none;" height="964"
    /></g
    ><g style="fill:white; text-rendering:optimizeSpeed; color-rendering:optimizeSpeed; image-rendering:optimizeSpeed; shape-rendering:crispEdges; color-interpolation:sRGB; stroke:white;"
    ><rect x="0" width="1920" height="964" y="0" style="stroke:none;"
      /><path style="stroke:none;" d="M250 858 L1738 858 L1738 72 L250 72 Z"
    /></g
    ><g style="fill:rgb(38,38,38); text-rendering:geometricPrecision; color-rendering:optimizeQuality; image-rendering:optimizeQuality; stroke-linejoin:round; color-interpolation:linearRGB; stroke:rgb(38,38,38); stroke-width:0.6667;"
    ><line y2="858" style="fill:none;" x1="250" x2="1738" y1="858"
      /><line y2="72" style="fill:none;" x1="250" x2="1738" y1="72"
      /><line y2="843.12" style="fill:none;" x1="250" x2="250" y1="858"
      /><line y2="843.12" style="fill:none;" x1="498" x2="498" y1="858"
      /><line y2="843.12" style="fill:none;" x1="746" x2="746" y1="858"
      /><line y2="843.12" style="fill:none;" x1="994" x2="994" y1="858"
      /><line y2="843.12" style="fill:none;" x1="1242" x2="1242" y1="858"
      /><line y2="843.12" style="fill:none;" x1="1490" x2="1490" y1="858"
      /><line y2="843.12" style="fill:none;" x1="1738" x2="1738" y1="858"
      /><line y2="86.88" style="fill:none;" x1="250" x2="250" y1="72"
      /><line y2="86.88" style="fill:none;" x1="498" x2="498" y1="72"
      /><line y2="86.88" style="fill:none;" x1="746" x2="746" y1="72"
      /><line y2="86.88" style="fill:none;" x1="994" x2="994" y1="72"
      /><line y2="86.88" style="fill:none;" x1="1242" x2="1242" y1="72"
      /><line y2="86.88" style="fill:none;" x1="1490" x2="1490" y1="72"
      /><line y2="86.88" style="fill:none;" x1="1738" x2="1738" y1="72"
    /></g
    ><g transform="translate(250,863.3333)" style="font-size:13px; fill:rgb(38,38,38); text-rendering:geometricPrecision; color-rendering:optimizeQuality; image-rendering:optimizeQuality; color-interpolation:linearRGB; stroke:rgb(38,38,38);"
    ><text x="-4" xml:space="preserve" y="14" style="stroke:none;"
      >1</text
    ></g
    ><g transform="translate(498,863.3333)" style="font-size:13px; fill:rgb(38,38,38); text-rendering:geometricPrecision; color-rendering:optimizeQuality; image-rendering:optimizeQuality; color-interpolation:linearRGB; stroke:rgb(38,38,38);"
    ><text x="-4" xml:space="preserve" y="14" style="stroke:none;"
      >2</text
    ></g
    ><g transform="translate(746,863.3333)" style="font-size:13px; fill:rgb(38,38,38); text-rendering:geometricPrecision; color-rendering:optimizeQuality; image-rendering:optimizeQuality; color-interpolation:linearRGB; stroke:rgb(38,38,38);"
    ><text x="-4" xml:space="preserve" y="14" style="stroke:none;"
      >3</text
    ></g
    ><g transform="translate(994,863.3333)" style="font-size:13px; fill:rgb(38,38,38); text-rendering:geometricPrecision; color-rendering:optimizeQuality; image-rendering:optimizeQuality; color-interpolation:linearRGB; stroke:rgb(38,38,38);"
    ><text x="-4" xml:space="preserve" y="14" style="stroke:none;"
      >4</text
    ></g
    ><g transform="translate(1242,863.3333)" style="font-size:13px; fill:rgb(38,38,38); text-rendering:geometricPrecision; color-rendering:optimizeQuality; image-rendering:optimizeQuality; color-interpolation:linearRGB; stroke:rgb(38,38,38);"
    ><text x="-4" xml:space="preserve" y="14" style="stroke:none;"
      >5</text
    ></g
    ><g transform="translate(1490,863.3333)" style="font-size:13px; fill:rgb(38,38,38); text-rendering:geometricPrecision; color-rendering:optimizeQuality; image-rendering:optimizeQuality; color-interpolation:linearRGB; stroke:rgb(38,38,38);"
    ><text x="-4" xml:space="preserve" y="14" style="stroke:none;"
      >6</text
    ></g
    ><g transform="translate(1738,863.3333)" style="font-size:13px; fill:rgb(38,38,38); text-rendering:geometricPrecision; color-rendering:optimizeQuality; image-rendering:optimizeQuality; color-interpolation:linearRGB; stroke:rgb(38,38,38);"
    ><text x="-4" xml:space="preserve" y="14" style="stroke:none;"
      >7</text
    ></g
    ><g transform="translate(994.0007,881.6667)" style="font-size:40px; fill:rgb(38,38,38); text-rendering:geometricPrecision; color-rendering:optimizeQuality; image-rendering:optimizeQuality; color-interpolation:linearRGB; stroke:rgb(38,38,38);"
    ><text x="-173.5" xml:space="preserve" y="41" style="stroke:none;"
      >Threshold factor (k)</text
    ></g
    ><g style="fill:rgb(38,38,38); text-rendering:geometricPrecision; color-rendering:optimizeQuality; image-rendering:optimizeQuality; stroke-linejoin:round; color-interpolation:linearRGB; stroke:rgb(38,38,38); stroke-width:0.6667;"
    ><line y2="72" style="fill:none;" x1="250" x2="250" y1="858"
      /><line y2="72" style="fill:none;" x1="1738" x2="1738" y1="858"
      /><line y2="858" style="fill:none;" x1="250" x2="264.88" y1="858"
      /><line y2="727" style="fill:none;" x1="250" x2="264.88" y1="727"
      /><line y2="596" style="fill:none;" x1="250" x2="264.88" y1="596"
      /><line y2="465" style="fill:none;" x1="250" x2="264.88" y1="465"
      /><line y2="334" style="fill:none;" x1="250" x2="264.88" y1="334"
      /><line y2="203" style="fill:none;" x1="250" x2="264.88" y1="203"
      /><line y2="72" style="fill:none;" x1="250" x2="264.88" y1="72"
      /><line y2="858" style="fill:none;" x1="1738" x2="1723.12" y1="858"
      /><line y2="727" style="fill:none;" x1="1738" x2="1723.12" y1="727"
      /><line y2="596" style="fill:none;" x1="1738" x2="1723.12" y1="596"
      /><line y2="465" style="fill:none;" x1="1738" x2="1723.12" y1="465"
      /><line y2="334" style="fill:none;" x1="1738" x2="1723.12" y1="334"
      /><line y2="203" style="fill:none;" x1="1738" x2="1723.12" y1="203"
      /><line y2="72" style="fill:none;" x1="1738" x2="1723.12" y1="72"
    /></g
    ><g transform="translate(244.6667,858)" style="font-size:13px; fill:rgb(38,38,38); text-rendering:geometricPrecision; color-rendering:optimizeQuality; image-rendering:optimizeQuality; color-interpolation:linearRGB; stroke:rgb(38,38,38);"
    ><text x="-8" xml:space="preserve" y="5.5" style="stroke:none;"
      >0</text
    ></g
    ><g transform="translate(244.6667,727)" style="font-size:13px; fill:rgb(38,38,38); text-rendering:geometricPrecision; color-rendering:optimizeQuality; image-rendering:optimizeQuality; color-interpolation:linearRGB; stroke:rgb(38,38,38);"
    ><text x="-19" xml:space="preserve" y="5.5" style="stroke:none;"
      >0.5</text
    ></g
    ><g transform="translate(244.6667,596)" style="font-size:13px; fill:rgb(38,38,38); text-rendering:geometricPrecision; color-rendering:optimizeQuality; image-rendering:optimizeQuality; color-interpolation:linearRGB; stroke:rgb(38,38,38);"
    ><text x="-8" xml:space="preserve" y="5.5" style="stroke:none;"
      >1</text
    ></g
    ><g transform="translate(244.6667,465)" style="font-size:13px; fill:rgb(38,38,38); text-rendering:geometricPrecision; color-rendering:optimizeQuality; image-rendering:optimizeQuality; color-interpolation:linearRGB; stroke:rgb(38,38,38);"
    ><text x="-19" xml:space="preserve" y="5.5" style="stroke:none;"
      >1.5</text
    ></g
    ><g transform="translate(244.6667,334)" style="font-size:13px; fill:rgb(38,38,38); text-rendering:geometricPrecision; color-rendering:optimizeQuality; image-rendering:optimizeQuality; color-interpolation:linearRGB; stroke:rgb(38,38,38);"
    ><text x="-8" xml:space="preserve" y="5.5" style="stroke:none;"
      >2</text
    ></g
    ><g transform="translate(244.6667,203)" style="font-size:13px; fill:rgb(38,38,38); text-rendering:geometricPrecision; color-rendering:optimizeQuality; image-rendering:optimizeQuality; color-interpolation:linearRGB; stroke:rgb(38,38,38);"
    ><text x="-19" xml:space="preserve" y="5.5" style="stroke:none;"
      >2.5</text
    ></g
    ><g transform="translate(244.6667,72)" style="font-size:13px; fill:rgb(38,38,38); text-rendering:geometricPrecision; color-rendering:optimizeQuality; image-rendering:optimizeQuality; color-interpolation:linearRGB; stroke:rgb(38,38,38);"
    ><text x="-8" xml:space="preserve" y="5.5" style="stroke:none;"
      >3</text
    ></g
    ><g transform="translate(221.6667,464.9996) rotate(-90)" style="font-size:40px; fill:rgb(38,38,38); text-rendering:geometricPrecision; color-rendering:optimizeQuality; image-rendering:optimizeQuality; color-interpolation:linearRGB; stroke:rgb(38,38,38);"
    ><text x="-156" xml:space="preserve" y="-9" style="stroke:none;"
      >Number of spikes</text
    ></g
    ><g transform="translate(250,69)" style="font-size:13px; fill:rgb(38,38,38); text-rendering:geometricPrecision; color-rendering:optimizeQuality; image-rendering:optimizeQuality; font-family:'mwb_cmsy10'; color-interpolation:linearRGB; stroke:rgb(38,38,38);"
    ><text x="0" xml:space="preserve" y="0" style="stroke:none;"
      >#</text
    ></g
    ><g transform="translate(261,69)" style="font-size:13px; fill:rgb(38,38,38); text-rendering:geometricPrecision; color-rendering:optimizeQuality; image-rendering:optimizeQuality; color-interpolation:linearRGB; stroke:rgb(38,38,38);"
    ><text x="0" xml:space="preserve" y="0" style="stroke:none;"
      >10</text
    ></g
    ><g transform="translate(276,63)" style="font-size:11px; fill:rgb(38,38,38); text-rendering:geometricPrecision; color-rendering:optimizeQuality; image-rendering:optimizeQuality; color-interpolation:linearRGB; stroke:rgb(38,38,38);"
    ><text x="0" xml:space="preserve" y="0" style="stroke:none;"
      >4</text
    ></g
    ><g transform="translate(994.001,63.75)" style="font-size:44px; text-rendering:geometricPrecision; color-rendering:optimizeQuality; image-rendering:optimizeQuality; color-interpolation:linearRGB; font-weight:bold;"
    ><text x="-583.5" xml:space="preserve" y="-10" style="stroke:none;"
      >Number of spikes for different values of k for dataset #1</text
    ></g
    ><g style="stroke-linecap:butt; fill:rgb(0,114,189); text-rendering:geometricPrecision; color-rendering:optimizeQuality; image-rendering:optimizeQuality; stroke-linejoin:round; color-interpolation:linearRGB; stroke:rgb(0,114,189); stroke-width:0.6667;"
    ><path d="M250 160.163 L252.48 166.9488 L254.96 173.8394 L257.44 180.9658 L259.92 187.935 L262.4 195.1138 L264.88 202.476 L267.36 209.5238 L269.84 216.5192 L272.32 223.3836 L274.8 230.248 L277.28 236.9814 L279.76 243.8196 L282.24 250.6054 L284.72 257.627 L287.2 265.4346 L289.68 272.4562 L292.16 278.8752 L294.64 284.6392 L297.12 291.5298 L299.6 297.9226 L302.08 304.2892 L304.56 311.0488 L307.04 317.3106 L309.52 324.1226 L312 330.7774 L314.48 337.5894 L316.96 343.3534 L319.44 350.0082 L321.92 356.9774 L324.4 363.7632 L326.88 369.8416 L329.36 375.396 L331.84 381.9984 L334.32 387.1336 L336.8 394.0242 L339.28 399.0284 L341.76 404.2946 L344.24 410.0848 L346.72 415.7178 L349.2 420.6696 L351.68 425.8834 L354.16 431.2282 L356.64 436.3634 L359.12 442.7562 L361.6 448.0748 L364.08 453.5244 L366.56 458.9478 L369.04 464.1354 L371.52 468.7466 L374 474.6678 L376.48 479.279 L378.96 484.7286 L381.44 489.2088 L383.92 493.4008 L386.4 498.0644 L388.88 502.7018 L391.36 507.051 L393.84 511.5574 L396.32 516.483 L398.8 521.0156 L401.28 525.3648 L403.76 529.2948 L406.24 533.4344 L408.72 537.574 L411.2 541.4516 L413.68 545.1982 L416.16 549.2592 L418.64 553.4774 L421.12 557.7218 L423.6 561.1802 L426.08 565.2674 L428.56 568.8568 L431.04 572.3676 L433.52 576.8478 L436 580.6468 L438.48 584.5768 L440.96 588.14 L443.44 591.7032 L445.92 594.6638 L448.4 597.6768 L450.88 600.847 L453.36 604.515 L455.84 607.7114 L458.32 610.9078 L460.8 613.8684 L463.28 616.8552 L465.76 619.4228 L468.24 622.4358 L470.72 625.2916 L473.2 627.6758 L475.68 630.1648 L478.16 632.4966 L480.64 635.169 L483.12 638.0248 L485.6 640.5924 L488.08 643.1862 L490.56 645.387 L493.04 648.0332 L495.52 650.4698 L498 653.0898 L500.48 655.8932 L502.96 658.225 L505.44 660.1114 L507.92 662.417 L510.4 664.6178 L512.88 666.5828 L515.36 668.6788 L517.84 670.8272 L520.32 672.635 L522.8 674.7834 L525.28 676.8794 L527.7599 678.9754 L530.2401 680.5212 L532.72 682.46 L535.2 684.1106 L537.68 686.128 L540.16 687.7 L542.64 689.6388 L545.12 691.5776 L547.6 692.94 L550.08 694.643 L552.56 696.608 L555.04 698.5468 L557.52 700.0402 L560 701.3764 L562.48 703.2366 L564.96 704.6514 L567.44 706.4592 L569.92 708.1098 L572.4 709.6556 L574.88 711.1752 L577.36 712.4066 L579.84 713.5856 L582.32 714.686 L584.8 715.734 L587.28 716.9654 L589.7599 718.1706 L592.2401 719.2972 L594.72 720.5024 L597.2 721.6028 L599.68 722.8604 L602.16 723.9346 L604.64 724.8516 L607.12 725.952 L609.6 727.1048 L612.08 728.2314 L614.56 729.3056 L617.04 730.1964 L619.52 731.4016 L622 732.0304 L624.48 732.6854 L626.96 733.5238 L629.44 734.4932 L631.92 735.2268 L634.4 736.1438 L636.88 736.9298 L639.36 737.7682 L641.84 738.7638 L644.32 739.6022 L646.8 740.3358 L649.28 741.2004 L651.7599 741.5148 L654.2401 742.3008 L656.72 742.8772 L659.2 743.5322 L661.68 744.0038 L664.16 744.6064 L666.64 744.8946 L669.12 745.6282 L671.6 746.2046 L674.08 746.5976 L676.56 747.2002 L679.04 747.7242 L681.52 748.1696 L684 748.4578 L686.48 748.9818 L688.96 749.401 L691.44 749.9512 L693.92 750.5538 L696.4 751.0254 L698.88 751.366 L701.36 751.8638 L703.84 752.152 L706.32 752.7022 L708.8 753.0428 L711.28 753.5144 L713.7599 753.8812 L716.2401 754.1956 L718.72 754.51 L721.2 754.8244 L723.68 755.2436 L726.16 755.6628 L728.64 755.951 L731.12 756.2654 L733.6 756.5012 L736.08 756.737 L738.56 757.0776 L741.04 757.3658 L743.52 757.7588 L746 757.8374 L748.48 758.3614 L750.96 758.571 L753.44 758.6496 L755.92 758.702 L758.4 759.0688 L760.88 759.3308 L763.36 759.5928 L765.84 759.7238 L768.32 760.012 L770.8 760.2216 L773.28 760.4836 L775.7599 760.6408 L778.2401 760.798 L780.72 761.0862 L783.2 761.2434 L785.68 761.4268 L788.16 761.6626 L790.64 761.8198 L793.12 762.0032 L795.6 762.1866 L798.08 762.3438 L800.56 762.37 L803.04 762.501 L805.52 762.6844 L808 762.7368 L810.48 762.8416 L812.96 762.9726 L815.44 763.1298 L817.92 763.2346 L820.4 763.3918 L822.88 763.4704 L825.36 763.6538 L827.84 763.7324 L830.32 763.8634 L832.8 763.9682 L835.28 764.0992 L837.7599 764.204 L840.2401 764.3088 L842.72 764.4136 L845.2 764.4922 L847.68 764.5708 L850.16 764.7804 L852.64 764.8852 L855.12 764.99 L857.6 765.0686 L860.08 765.1472 L862.56 765.1472 L865.04 765.1734 L867.52 765.2258 L870 765.2258 L872.48 765.3044 L874.96 765.4092 L877.44 765.4354 L879.92 765.4878 L882.4 765.4878 L884.88 765.5402 L887.36 765.5926 L889.84 765.6188 L892.32 765.6712 L894.8 765.8022 L897.28 765.8546 L899.7599 765.8808 L902.2401 765.9332 L904.72 766.0118 L907.2 766.0642 L909.68 766.1166 L912.16 766.169 L914.64 766.2214 L917.12 766.2738 L919.6 766.3786 L922.08 766.431 L924.56 766.5096 L927.04 766.562 L929.52 766.5882 L932 766.6406 L934.48 766.6406 L936.96 766.7192 L939.44 766.7978 L941.92 766.824 L944.4 766.8502 L946.88 766.8764 L949.36 766.9812 L951.84 767.0336 L954.32 767.086 L956.8 767.086 L959.28 767.1122 L961.7599 767.1122 L964.2401 767.1384 L966.72 767.1646 L969.2 767.1908 L971.68 767.1908 L974.16 767.217 L976.64 767.2432 L979.12 767.2432 L981.6 767.2432 L984.08 767.3218 L986.56 767.348 L989.04 767.3742 L991.52 767.4004 L994 767.4266 L996.48 767.4266 L998.96 767.4528 L1001.4401 767.4528 L1003.92 767.4266 L1006.4 767.4528 L1008.88 767.4528 L1011.36 767.479 L1013.84 767.5052 L1016.3201 767.5052 L1018.8 767.5052 L1021.28 767.5576 L1023.7599 767.5576 L1026.24 767.5576 L1028.72 767.5838 L1031.2001 767.61 L1033.6799 767.6362 L1036.16 767.6886 L1038.64 767.6886 L1041.12 767.7148 L1043.6 767.7148 L1046.08 767.7672 L1048.5599 767.7672 L1051.04 767.7672 L1053.5199 767.7672 L1056 767.7934 L1058.4801 767.7934 L1060.96 767.8196 L1063.4401 767.8196 L1065.92 767.8196 L1068.4 767.8196 L1070.88 767.8196 L1073.36 767.8196 L1075.84 767.8196 L1078.3201 767.8196 L1080.7999 767.8196 L1083.28 767.8196 L1085.76 767.8196 L1088.24 767.8196 L1090.72 767.8458 L1093.2001 767.8458 L1095.6799 767.8458 L1098.16 767.8458 L1100.64 767.8458 L1103.12 767.8458 L1105.6 767.872 L1108.08 767.8982 L1110.5599 767.8982 L1113.04 767.8982 L1115.5199 767.8982 L1118 767.8982 L1120.4801 767.9244 L1122.96 767.9506 L1125.4401 767.9506 L1127.92 767.9506 L1130.4 767.9768 L1132.88 767.9768 L1135.36 768.003 L1137.84 768.003 L1140.3201 768.003 L1142.7999 768.003 L1145.28 768.003 L1147.76 768.0292 L1150.24 768.0292 L1152.72 768.0292 L1155.2001 768.0292 L1157.6799 768.0292 L1160.16 768.0292 L1162.64 768.0292 L1165.12 768.0292 L1167.6 768.0292 L1170.08 768.0292 L1172.5599 768.0292 L1175.04 768.0292 L1177.5199 768.0292 L1180 768.0292 L1182.4801 768.0292 L1184.96 768.0554 L1187.4401 768.0554 L1189.92 768.0554 L1192.4 768.0554 L1194.88 768.0554 L1197.36 768.0554 L1199.84 768.0554 L1202.3201 768.0554 L1204.7999 768.0554 L1207.28 768.0554 L1209.76 768.0554 L1212.24 768.0554 L1214.72 768.0554 L1217.2001 768.0554 L1219.6799 768.0554 L1222.16 768.0554 L1224.64 768.0554 L1227.12 768.0554 L1229.6 768.0554 L1232.08 768.0554 L1234.5599 768.0554 L1237.04 768.0554 L1239.5199 768.0554 L1242 768.0554 L1244.4801 768.0554 L1246.96 768.0816 L1249.4401 768.0816 L1251.92 768.0816 L1254.4 768.0816 L1256.88 768.0816 L1259.36 768.0816 L1261.84 768.0816 L1264.3201 768.0816 L1266.7999 768.0816 L1269.28 768.0554 L1271.76 768.0554 L1274.24 768.0554 L1276.72 768.0554 L1279.2001 768.0554 L1281.6799 768.0816 L1284.16 768.0816 L1286.64 768.0816 L1289.12 768.0816 L1291.6 768.0816 L1294.08 768.1078 L1296.5599 768.134 L1299.04 768.134 L1301.5199 768.134 L1304 768.134 L1306.4801 768.134 L1308.96 768.134 L1311.4401 768.134 L1313.92 768.134 L1316.4 768.134 L1318.88 768.134 L1321.36 768.1078 L1323.84 768.1078 L1326.3201 768.0816 L1328.7999 768.0816 L1331.28 768.0816 L1333.76 768.0816 L1336.24 768.0816 L1338.72 768.0816 L1341.2001 768.0816 L1343.6799 768.0816 L1346.16 768.0816 L1348.64 768.0816 L1351.12 768.0816 L1353.6 768.0816 L1356.08 768.0816 L1358.5599 768.0816 L1361.04 768.0816 L1363.5199 768.0816 L1366 768.0816 L1368.4801 768.0816 L1370.96 768.0816 L1373.4401 768.0816 L1375.92 768.0816 L1378.4 768.0816 L1380.88 768.0816 L1383.36 768.0816 L1385.84 768.0816 L1388.3201 768.0554 L1390.7999 768.0554 L1393.28 768.0554 L1395.76 768.0554 L1398.24 768.0554 L1400.72 768.0554 L1403.2001 768.0554 L1405.6799 768.0554 L1408.16 768.0816 L1410.64 768.0816 L1413.12 768.0816 L1415.6 768.0816 L1418.08 768.0816 L1420.5599 768.0816 L1423.04 768.0816 L1425.5199 768.0816 L1428 768.0816 L1430.4801 768.0816 L1432.96 768.0816 L1435.4401 768.0816 L1437.92 768.0816 L1440.4 768.0816 L1442.88 768.0816 L1445.36 768.0554 L1447.84 768.0554 L1450.3201 768.0554 L1452.7999 768.0816 L1455.28 768.0816 L1457.76 768.0816 L1460.24 768.0816 L1462.72 768.0816 L1465.2001 768.0816 L1467.6799 768.0816 L1470.16 768.0816 L1472.64 768.0816 L1475.12 768.0816 L1477.6 768.0816 L1480.08 768.0816 L1482.5599 768.0816 L1485.04 768.0816 L1487.5199 768.0554 L1490 768.0554 L1492.4801 768.0554 L1494.96 768.0554 L1497.4401 768.0554 L1499.92 768.0554 L1502.4 768.0292 L1504.88 768.0292 L1507.36 768.0292 L1509.84 768.0292 L1512.3201 768.003 L1514.7999 768.003 L1517.28 768.003 L1519.76 768.003 L1522.24 768.003 L1524.72 768.003 L1527.2001 768.0292 L1529.6799 768.0292 L1532.16 768.0292 L1534.64 768.0292 L1537.12 768.0554 L1539.6 768.0554 L1542.08 768.0554 L1544.5599 768.0554 L1547.04 768.0554 L1549.5199 768.0554 L1552 768.0554 L1554.4801 768.0554 L1556.96 768.0554 L1559.4401 768.0554 L1561.92 768.0554 L1564.4 768.0554 L1566.88 768.0554 L1569.36 768.0554 L1571.84 768.0554 L1574.3201 768.0554 L1576.7999 768.0554 L1579.28 768.0554 L1581.76 768.0554 L1584.24 768.0554 L1586.72 768.0554 L1589.2001 768.0554 L1591.6799 768.0554 L1594.16 768.0554 L1596.64 768.0554 L1599.12 768.0554 L1601.6 768.0554 L1604.08 768.0554 L1606.5599 768.0554 L1609.04 768.0554 L1611.5199 768.0554 L1614 768.0554 L1616.4801 768.0554 L1618.96 768.0554 L1621.4401 768.0554 L1623.92 768.0554 L1626.4 768.0554 L1628.88 768.0554 L1631.36 768.0554 L1633.84 768.0554 L1636.3201 768.0554 L1638.7999 768.0554 L1641.28 768.0554 L1643.76 768.0554 L1646.24 768.0554 L1648.72 768.0554 L1651.2001 768.0554 L1653.6799 768.0554 L1656.16 768.0554 L1658.64 768.0554 L1661.12 768.0554 L1663.6 768.0554 L1666.08 768.0554 L1668.5599 768.0554 L1671.04 768.0554 L1673.5199 768.0554 L1676 768.0554 L1678.4801 768.0554 L1680.96 768.0292 L1683.4401 768.0292 L1685.92 768.0292 L1688.4 768.0292 L1690.88 768.0292 L1693.36 768.0292 L1695.84 768.0292 L1698.3201 768.0292 L1700.7999 768.0292 L1703.28 768.0554 L1705.76 768.0554 L1708.24 768.0554 L1710.72 768.0554 L1713.2001 768.0554 L1715.6799 768.0554 L1718.16 768.0554 L1720.64 768.0554 L1723.12 768.0554 L1725.6 768.0554 L1728.08 768.0554 L1730.5599 768.0554 L1733.04 768.0554 L1735.5199 768.0554 L1738 768.0554" style="fill:none; fill-rule:evenodd;"
      /><line x1="250" x2="1738" y1="765.9332" style="fill:none; stroke:rgb(217,83,25);" y2="765.9332"
    /></g
  ></g
></svg
>
