<?xml version="1.0" encoding="utf-8"?>
<!-- Generator: Adobe Illustrator 19.0.0, SVG Export Plug-In . SVG Version: 6.00 Build 0)  -->
<svg version="1.1" id="Layer_1" xmlns="http://www.w3.org/2000/svg" xmlns:xlink="http://www.w3.org/1999/xlink" x="0px" y="0px"
	 width="1562.8901367px" height="919.6533203px" viewBox="1078.340332 -405.9980469 1562.8901367 919.6533203"
	 style="enable-background:new 1078.340332 -405.9980469 1562.8901367 919.6533203;" xml:space="preserve">
<style type="text/css">
	.st0{fill:#FFFFFF;}
	.st1{fill:none;stroke:#262626;stroke-width:0.6667;stroke-linecap:square;stroke-linejoin:round;stroke-miterlimit:10;}
	.st2{fill:#262626;}
	.st3{font-family:'ArialMT';}
	.st4{font-size:13px;}
	.st5{font-size:40px;}
	.st6{font-size:11px;}
	.st7{font-family:'Arial-BoldMT';}
	.st8{font-size:44px;}
	.st9{fill:none;stroke:#0072BD;stroke-width:0.6667;stroke-linejoin:round;stroke-miterlimit:10;}
	.st10{fill:none;stroke:#D95319;stroke-width:0.6667;stroke-linejoin:round;stroke-miterlimit:10;}
</style>
<g>
	<g>
		<path class="st0" d="M1150,436h1488v-786H1150V436z"/>
	</g>
	<g>
		<line class="st1" x1="1150" y1="436" x2="2638" y2="436"/>
		<line class="st1" x1="1150" y1="-350" x2="2638" y2="-350"/>
		<line class="st1" x1="1150" y1="436" x2="1150" y2="421.1199951"/>
		<line class="st1" x1="1398" y1="436" x2="1398" y2="421.1199951"/>
		<line class="st1" x1="1646" y1="436" x2="1646" y2="421.1199951"/>
		<line class="st1" x1="1894" y1="436" x2="1894" y2="421.1199951"/>
		<line class="st1" x1="2142" y1="436" x2="2142" y2="421.1199951"/>
		<line class="st1" x1="2390" y1="436" x2="2390" y2="421.1199951"/>
		<line class="st1" x1="2638" y1="436" x2="2638" y2="421.1199951"/>
		<line class="st1" x1="1150" y1="-350" x2="1150" y2="-335.1199951"/>
		<line class="st1" x1="1398" y1="-350" x2="1398" y2="-335.1199951"/>
		<line class="st1" x1="1646" y1="-350" x2="1646" y2="-335.1199951"/>
		<line class="st1" x1="1894" y1="-350" x2="1894" y2="-335.1199951"/>
		<line class="st1" x1="2142" y1="-350" x2="2142" y2="-335.1199951"/>
		<line class="st1" x1="2390" y1="-350" x2="2390" y2="-335.1199951"/>
		<line class="st1" x1="2638" y1="-350" x2="2638" y2="-335.1199951"/>
	</g>
	<g transform="translate(250,863.3333)">
		<text transform="matrix(1 0 0 1 896 -408)" class="st2 st3 st4">1</text>
	</g>
	<g transform="translate(498,863.3333)">
		<text transform="matrix(1 0 0 1 896 -408)" class="st2 st3 st4">2</text>
	</g>
	<g transform="translate(746,863.3333)">
		<text transform="matrix(1 0 0 1 896 -408)" class="st2 st3 st4">3</text>
	</g>
	<g transform="translate(994,863.3333)">
		<text transform="matrix(1 0 0 1 896 -408)" class="st2 st3 st4">4</text>
	</g>
	<g transform="translate(1242,863.3333)">
		<text transform="matrix(1 0 0 1 896 -408)" class="st2 st3 st4">5</text>
	</g>
	<g transform="translate(1490,863.3333)">
		<text transform="matrix(1 0 0 1 896 -408)" class="st2 st3 st4">6</text>
	</g>
	<g transform="translate(1738,863.3333)">
		<text transform="matrix(1 0 0 1 896 -408)" class="st2 st3 st4">7</text>
	</g>
	<g transform="translate(994.0007,881.6667)">
		<text transform="matrix(1 0 0 1 726.5 -381)" class="st2 st3 st5">Threshold factor (k)</text>
	</g>
	<g>
		<line class="st1" x1="1150" y1="436" x2="1150" y2="-350"/>
		<line class="st1" x1="2638" y1="436" x2="2638" y2="-350"/>
		<line class="st1" x1="1150" y1="436" x2="1164.8800049" y2="436"/>
		<line class="st1" x1="1150" y1="305" x2="1164.8800049" y2="305"/>
		<line class="st1" x1="1150" y1="174" x2="1164.8800049" y2="174"/>
		<line class="st1" x1="1150" y1="43" x2="1164.8800049" y2="43"/>
		<line class="st1" x1="1150" y1="-88" x2="1164.8800049" y2="-88"/>
		<line class="st1" x1="1150" y1="-219" x2="1164.8800049" y2="-219"/>
		<line class="st1" x1="1150" y1="-350" x2="1164.8800049" y2="-350"/>
		<line class="st1" x1="2638" y1="436" x2="2623.1201172" y2="436"/>
		<line class="st1" x1="2638" y1="305" x2="2623.1201172" y2="305"/>
		<line class="st1" x1="2638" y1="174" x2="2623.1201172" y2="174"/>
		<line class="st1" x1="2638" y1="43" x2="2623.1201172" y2="43"/>
		<line class="st1" x1="2638" y1="-88" x2="2623.1201172" y2="-88"/>
		<line class="st1" x1="2638" y1="-219" x2="2623.1201172" y2="-219"/>
		<line class="st1" x1="2638" y1="-350" x2="2623.1201172" y2="-350"/>
	</g>
	<g transform="translate(244.6667,858)">
		<text transform="matrix(1 0 0 1 892 -416.5)" class="st2 st3 st4">0</text>
	</g>
	<g transform="translate(244.6667,727)">
		<text transform="matrix(1 0 0 1 881 -416.5)" class="st2 st3 st4">0.5</text>
	</g>
	<g transform="translate(244.6667,596)">
		<text transform="matrix(1 0 0 1 892 -416.5)" class="st2 st3 st4">1</text>
	</g>
	<g transform="translate(244.6667,465)">
		<text transform="matrix(1 0 0 1 881 -416.5)" class="st2 st3 st4">1.5</text>
	</g>
	<g transform="translate(244.6667,334)">
		<text transform="matrix(1 0 0 1 892 -416.5)" class="st2 st3 st4">2</text>
	</g>
	<g transform="translate(244.6667,203)">
		<text transform="matrix(1 0 0 1 881 -416.5)" class="st2 st3 st4">2.5</text>
	</g>
	<g transform="translate(244.6667,72)">
		<text transform="matrix(1 0 0 1 892 -416.5)" class="st2 st3 st4">3</text>
	</g>
	<g transform="translate(221.6667,464.9996) rotate(-90)">
		<text transform="matrix(1 0 0 1 265.9996033 891)" class="st2 st3 st5">Number of spikes</text>
	</g>
	<g transform="translate(250,69)">
		<text transform="matrix(1 0 0 1 900 -422)" class="st2 st3 st4">#</text>
	</g>
	<g transform="translate(261,69)">
		<text transform="matrix(1 0 0 1 900 -422)" class="st2 st3 st4">10</text>
	</g>
	<g transform="translate(276,63)">
		<text transform="matrix(1 0 0 1 900 -422)" class="st2 st3 st6">4</text>
	</g>
	<g transform="translate(994.001,63.75)">
		<text transform="matrix(1 0 0 1 316.5 -432)" class="st7 st8">Number of spikes for different values of k for dataset #5</text>
	</g>
	<g>
		<path class="st9" d="M1150-294.6131897l2.4799805,7.0740051l2.4799805,6.3141785l2.4799805,7.1264038l2.4801025,7.5979919
			l2.4799805,6.7333984l2.4799805,5.8950195l2.4799805,5.894989l2.4799805,7.2574005l2.4801025,7.2312012l2.4799805,7.1264038
			l2.4799805,6.471405l2.4799805,7.2835999l2.4799805,7.0739899l2.4799805,6.6024017l2.4799805,6.0783997l2.4799805,6.8119965
			l2.4801025,7.4146118l2.4799805,6.3927917l2.4799805,6.2355957l2.4799805,6.5238037l2.4799805,6.314209l2.4801025,5.9212036
			l2.4799805,6.2879944l2.4799805,5.9212036L1212-128.6099854l2.4799805,6.5761719l2.4799805,6.2094116l2.4799805,7.0477905
			l2.4801025,6.1046143l2.4799805,6.8905945l2.4799805,6.7333984l2.4799805,6.4975891l2.4799805,6.5238037l2.4801025,6.1307983
			l2.4799805,5.6330261l2.4799805,7.0477905l2.4799805,6.0783997l2.4799805,6.5762024l2.4799805,6.5238037l2.4799805,5.9997864
			l2.4799805,5.5281982l2.4801025,5.6592102l2.4799805,5.5019836l2.4799805,6.1046143l2.4799805,5.2399902l2.4799805,5.7640076
			l2.4801025,5.5020142l2.4799805,5.0827942l2.4799805,5.9473877L1274,23.8478088l2.4799805,5.2923889l2.4799805,5.9736023
			l2.4799805,5.7901917l2.4801025,5.0566101l2.4799805,5.4757996l2.4799805,5.1614075l2.4799805,4.8993835l2.4799805,5.4757996
			l2.4801025,4.585022l2.4799805,4.9779968l2.4799805,4.9517822l2.4799805,4.7684021l2.4799805,4.1396179l2.4799805,3.9561768
			l2.4799805,4.1658325l2.4799805,5.0303955l2.4801025,4.4016113l2.4799805,5.1351929l2.4799805,3.9561768l2.4799805,4.4016113
			l2.4799805,4.4016113l2.4801025,3.9299927l2.4799805,4.4277954l2.4799805,4.5325928L1336,142.7434082l2.4799805,3.9824219
			l2.4799805,3.7727661l2.4799805,3.9824219l2.4801025,3.9561768l2.4799805,4.0610352l2.4799805,3.9037476l2.4799805,3.5894165
			l2.4799805,3.7990112l2.4801025,3.5108032l2.4799805,3.1964111l2.4799805,2.9867554l2.4799805,3.3798218l2.4799805,3.7203979
			l2.4799805,3.5632324l2.4799805,3.1177979l2.4799805,3.4059448l2.4801025,3.3012085l2.4799805,3.3798218l2.4799805,3.1439819
			l2.4799805,3.1177979l2.4799805,2.4366455l2.4801025,3.1439819l2.4799805,3.0653687l2.4799805,2.4104004L1398,227.3956299
			l2.4799805,2.881958l2.4799805,2.882019l2.4799805,2.4104004l2.4801025,2.9343872l2.4799805,2.7247925l2.4799805,2.567627
			l2.4799805,2.305603l2.4801025,2.5675659l2.4799805,2.9343872l2.4799805,2.6200562l2.4799805,2.5413818l2.4798584,2.5675659
			l2.4802246,2.305603l2.4798584,2.0436401l2.4799805,2.305603l2.4799805,2.5151978l2.4799805,1.6243896l2.4801025,2.1746216
			l2.4799805,2.0959473l2.4799805,2.1222534l2.4801025,2.1483765l2.4799805,2.305603l2.4799805,2.4627686l2.4799805,2.0698242
			L1460,287.3936157l2.4799805,1.8601685l2.4799805,2.2532349l2.4799805,1.5457764l2.4799805,1.9650269l2.4801025,2.0435791
			l2.4799805,1.9125977l2.4799805,1.5720215l2.4801025,1.6767578l2.4799805,2.017395l2.4799805,1.8602295l2.4799805,1.7030029
			l2.4798584,1.5720215l2.4802246,1.4147949l2.4798584,1.3885498l2.4799805,1.3362427l2.4799805,1.7030029l2.4799805,1.5982056
			l2.4801025,1.3885498l2.4799805,1.4934082l2.4799805,0.6550293l2.4801025,1.6505737l2.4799805,1.0742188l2.4799805,1.2575684
			l2.4799805,1.1790161L1522,326.7722168l2.4799805,0.9431763l2.4799805,1.3099976l2.4799805,1.0217896l2.4799805,1.2838135
			l2.4801025,1.152832l2.4799805,1.4671631l2.4799805,0.9956055l2.4801025,1.152832l2.4799805,1.3099976l2.4799805,0.9169922
			l2.4799805,1.0741577l2.4798584,0.9170532l2.4802246,0.9431763l2.4798584,0.8908081l2.4799805,0.7073975l2.4799805,0.9956055
			l2.4799805,1.2313843l2.4801025,0.9169922l2.4799805,0.864624l2.4799805,0.7335815l2.4801025,1.0479736l2.4799805,1.2838135
			l2.4799805,0.9432373l2.4799805,0.9431763L1584,352.7625732l2.4799805,0.6288452l2.4799805,0.9693604l2.4799805,0.9432373
			l2.4799805,0.864563l2.4801025,1.1266479l2.4799805,0.8121948l2.4799805,0.6549683l2.4801025,0.7073975l2.4799805,1.0217896
			l2.4799805,0.8121948l2.4799805,0.7860107l2.4798584,0.5502319l2.4802246,0.7597656l2.4798584,0.9694214l2.4799805,0.7073975
			l2.4799805,0.6550293l2.4799805,0.8907471l2.4801025,0.4978027l2.4799805,0.6812134l2.4799805,0.6287842l2.4801025,0.6550293
			l2.4799805,0.7597656l2.4799805,0.6026001l2.4799805,0.7074585L1646,371.7052002l2.4799805,0.6026001l2.4799805,0.4716187
			l2.4799805,0.576355l2.4799805,0.864624l2.4801025,0.4978027l2.4799805,0.3143921l2.4799805,0.4454346l2.4801025,0.5501709
			l2.4799805,0.2620239l2.4799805,0.7597656l2.4799805,0.5502319l2.4798584,0.3405762l2.4802246,0.576416l2.4798584,0.5239868
			l2.4799805,0.4453735l2.4799805,0.5502319l2.4799805,0.6812134l2.4801025,0.4453735l2.4799805,0.4716187l2.4799805,0.4716187
			l2.4801025,0.7335815l2.4799805,0.5239868l2.4799805,0.3930054l2.4799805,0.4191895L1708,384.8314209l2.4799805,0.3930054
			l2.4799805,0.4191895l2.4799805,0.4453735l2.4799805,0.4978027l2.4801025,0.3930054l2.4799805,0.6287842l2.4799805,0.3930054
			l2.4801025,0.3143921l2.4799805,0.3406372l2.4799805,0.4715576l2.4799805,0.4978027l2.4798584,0.4978027l2.4802246,0.3930054
			l2.4798584,0.3668213l2.4799805,0.2357788l2.4799805,0.3668213l2.4799805,0.3668213l2.4801025,0.3667603l2.4799805,0.1834106
			l2.4799805,0.3668213l2.4801025,0.3667603l2.4799805,0.288208l2.4799805,0.2620239l2.4799805,0.288208L1770,394.4467773
			l2.4799805,0.3406372l2.4799805,0.2095947l2.4799805,0.5239868l2.4799805,0.3930054l2.4801025,0.4191895l2.4799805,0.3930054
			l2.4799805,0.288208l2.4801025,0.3143921l2.4799805,0.3405762l2.4799805,0.288208l2.4799805,0.3406372l2.4798584,0.4191895
			l2.4802246,0.3405762l2.4798584,0.2620239l2.4799805,0.2095947l2.4799805,0.3930054l2.4799805,0.2619629l2.4801025,0.3144531
			l2.4799805,0.3405762l2.4799805,0.3405762l2.4801025,0.3668213l2.4799805,0.1309814l2.4799805,0.4192505l2.4799805,0.3667603
			L1832,402.7521973l2.4799805,0.288208l2.4799805,0.4978027l2.4799805,0.288208l2.4799805,0.4453735l2.4801025,0.4191895
			l2.4799805,0.3143921l2.4799805,0.3406372l2.4801025,0.1571655l2.4799805,0.3930054l2.4799805,0.3668213l2.4799805,0.1834106
			l2.4798584,0.3930054l2.4802246,0.288208l2.4798584,0.2357788l2.4799805,0.3405762l2.4799805,0.3406372l2.4799805,0.3405762
			l2.4801025,0.288208l2.4799805,0.2620239l2.4799805,0.3667603l2.4801025,0.1310425l2.4799805,0.288147l2.4799805,0.1572266
			l2.4799805,0.2620239L1894,410.4025879l2.4799805,0.3406372l2.4799805,0.2619629l2.4802246,0.3143921l2.4797363,0.2620239
			l2.4801025,0.1047974l2.4799805,0.2357788l2.4799805,0.3143921l2.4801025,0.288208l2.4799805,0.4191895l2.4799805,0.1834106
			l2.4799805,0.2358398l2.4798584,0.3667603l2.4801025,0.2358398l2.4799805,0.1047974l2.4801025,0.3405762l2.4798584,0.1309814
			l2.4801025,0.2095947l2.4799805,0.1310425l2.4799805,0.288208l2.4799805,0.1047974l2.4799805,0.2619629l2.4799805,0.3406372
			l2.4801025,0.2619629l2.4798584,0.4191895L1956,416.8740234l2.4801025,0.1833496l2.4798584,0.2096558l2.4801025,0.3929443
			l2.4799805,0.3406372l2.4799805,0.1834106l2.4799805,0.1571655l2.4799805,0.1047974l2.4799805,0.1834106l2.4801025,0.2357788
			l2.4798584,0.2096558l2.4801025,0.2095947l2.4799805,0.0785522l2.4799805,0.2358398l2.4799805,0.3405762l2.4801025,0.1047974
			l2.4798584,0.1309814l2.4801025,0.3668213l2.4799805,0.0261841l2.4799805,0.0786133l2.4799805,0.2358398l2.4799805,0.3143921
			l2.4799805,0.1571655l2.4801025,0.3668213l2.4798584,0.2095947L2018,422.218811l2.4801025,0.288208l2.4798584,0.2095947
			l2.4801025,0.1571655l2.4799805,0.2358398l2.4799805,0.1571655l2.4799805,0.2358398l2.4799805,0.1047974l2.4799805,0.1571655
			l2.4801025,0.288208l2.4798584,0.2620239l2.4801025,0.288208l2.4799805,0.1833496l2.4799805,0.2358398l2.4799805,0.1571655
			l2.4802246,0.0262451l2.4797363,0.1309814l2.4802246,0.1571655l2.4799805,0.2096558l2.4799805,0.2357788l2.4799805,0.1309814
			l2.4799805,0.1834106l2.4799805,0.0786133l2.4799805,0.0786133l2.4799805,0.2095947L2080,426.8562012l2.4799805,0.1309814
			l2.4799805,0.1310425l2.4799805,0.1047974l2.4799805,0.1833496l2.4799805,0.1834106l2.4799805,0.1834106l2.4799805,0.0524292
			l2.4799805,0.1309814l2.4802246,0.1047974l2.4797363,0.1309814l2.4802246,0.2358398l2.4799805,0.2095947l2.4799805,0.1047974
			l2.4799805,0.2357788l2.4802246,0.1572266l2.4797363,0.2095947l2.4802246,0.0523682l2.4799805,0.0524292l2.4799805,0.1571655
			l2.4799805,0.0524292l2.4799805,0.1309814l2.4799805,0.1047974l2.4799805,0.2095947l2.4799805,0.1572266L2142,430.3931885
			l2.4799805,0.1309814h2.4799805h2.4799805l2.4799805,0.1572266l2.4799805,0.2095947l2.4799805,0.0786133l2.4799805,0.1834106
			l2.4799805,0.1571655l2.4802246,0.0262451l2.4797363,0.0785522l2.4802246,0.1572266l2.4799805,0.0786133l2.4799805,0.0523682
			l2.4799805,0.0524292l2.4802246,0.0523682l2.4797363,0.1047974l2.4802246,0.0786133l2.4799805,0.0524292l2.4799805,0.0523682
			l2.4799805,0.0786133l2.4799805,0.0786133l2.4799805,0.0523682l2.4799805,0.0524292l2.4799805,0.1047974L2204,432.541626
			l2.4799805,0.0785522l2.4799805,0.1047974l2.4799805,0.0262451l2.4799805,0.1047974l2.4799805,0.2357788l2.4799805,0.0261841
			l2.4799805,0.0524292l2.4799805,0.0261841l2.4802246,0.0261841l2.4797363,0.0524292l2.4802246,0.1309814l2.4799805,0.0524292
			l2.4799805,0.0785522l2.4799805,0.0262451l2.4802246,0.0786133l2.4797363,0.0785522l2.4802246,0.0262451h2.4799805
			l2.4799805,0.0785522l2.4799805,0.0262451l2.4799805,0.0785522h2.4799805l2.4799805,0.1047974h2.4799805L2266,434.1135864
			h2.4799805l2.4799805,0.0786133h2.4799805l2.4799805,0.0524292h2.4799805l2.4799805,0.0785522l2.4799805,0.0262451
			l2.4799805,0.0523682h2.4802246l2.4797363,0.0261841l2.4802246,0.0786133l2.4799805,0.0261841h2.4799805l2.4799805,0.0524292
			l2.4802246,0.0523682l2.4797363,0.1047974l2.4802246,0.0262451l2.4799805,0.0261841l2.4799805,0.0261841h2.4799805h2.4799805
			l2.4799805,0.0262451l2.4799805,0.0261841h2.4799805L2328,434.8995972h2.4799805h2.4799805h2.4799805l2.4799805,0.0524292
			l2.4799805,0.0523682l2.4799805,0.0261841l2.4799805,0.0786133l2.4799805,0.0261841h2.4802246l2.4797363,0.0262451h2.4802246
			h2.4799805h2.4799805h2.4799805l2.4802246,0.0261841l2.4797363,0.0261841l2.4802246,0.0261841l2.4799805,0.0262451
			l2.4799805,0.0261841l2.4799805,0.0261841h2.4799805h2.4799805l2.4799805,0.0261841h2.4799805H2390l2.4799805,0.0262451h2.4799805
			h2.4799805h2.4799805h2.4799805h2.4799805l2.4799805,0.0261841h2.4799805l2.4802246,0.0261841h2.4797363h2.4802246h2.4799805
			h2.4799805h2.4799805l2.4802246,0.0262451h2.4797363l2.4802246,0.0261841h2.4799805h2.4799805h2.4799805h2.4799805
			l2.4799805,0.0261841h2.4799805h2.4799805H2452l2.4799805,0.0261841h2.4799805l2.4799805,0.0262451l2.4799805,0.0261841h2.4799805
			h2.4799805l2.4799805,0.0261841h2.4799805h2.4802246h2.4797363l2.4802246,0.0261841h2.4799805h2.4799805h2.4799805h2.4802246
			l2.4797363,0.0262451h2.4802246h2.4799805l2.4799805,0.0261841l2.4799805,0.0261841h2.4799805h2.4799805h2.4799805h2.4799805H2514
			h2.4799805h2.4799805h2.4799805h2.4799805h2.4799805h2.4799805h2.4799805h2.4799805h2.4802246h2.4797363l2.4802246,0.0261841
			h2.4799805h2.4799805h2.4799805h2.4802246h2.4797363h2.4802246h2.4799805l2.4799805,0.0262451h2.4799805h2.4799805h2.4799805
			h2.4799805h2.4799805H2576h2.4799805h2.4799805l2.4799805,0.0261841h2.4799805h2.4799805h2.4799805h2.4799805h2.4799805h2.4802246
			h2.4797363h2.4802246h2.4799805h2.4799805l2.4799805,0.0261841h2.4802246h2.4797363h2.4802246h2.4799805h2.4799805h2.4799805
			h2.4799805h2.4799805h2.4799805h2.4799805H2638"/>
		<line class="st10" x1="1150" y1="349.5924072" x2="2638" y2="349.5924072"/>
	</g>
</g>
</svg>
